Waveforms/ble_receiver_full.vcd
$date
	Wed Apr 01 23:43:14 2026
$end
$version
	Icarus Verilog
$end
$timescale
	1ps
$end
$scope module Receiver_top_tb $end
$var wire 1 ! tx_ready_out $end
$var wire 1 " rx_ready $end
$var wire 1 # rx_data_valid $end
$var wire 8 $ rx_data_out [7:0] $end
$var wire 1 % rf_out $end
$var wire 8 & payload_length [7:0] $end
$var wire 1 ' packet_valid $end
$var wire 1 ( irq_tx_done $end
$var reg 1 ) ext_clk $end
$var reg 1 * rst_n $end
$var reg 3 + rx_state [2:0] $end
$var reg 1 , start_tx $end
$var reg 8 - tx_data_in [7:0] $end
$var reg 1 . tx_valid_in $end
$scope module rx_dut $end
$var wire 6 / channel_idx [5:0] $end
$var wire 1 ) ext_clk $end
$var wire 1 ' packet_valid $end
$var wire 1 * rst_n $end
$var wire 1 0 sys_rst_n $end
$var wire 1 " rx_ready $end
$var wire 1 # rx_data_valid $end
$var wire 8 1 rx_data_out [7:0] $end
$var wire 1 % rf_in $end
$var wire 1 2 pll_locked $end
$var wire 8 3 payload_length [7:0] $end
$var wire 1 4 packet_complete $end
$var wire 1 5 dewhite_data $end
$var wire 1 6 demod_valid $end
$var wire 1 7 demod_data $end
$var wire 1 8 crc_valid $end
$var wire 1 9 clk_400mhz $end
$var reg 1 : dewhite_enable $end
$var reg 1 ; dewhite_load $end
$scope module i_demod $end
$var wire 1 0 rst_n $end
$var wire 1 % rf_in $end
$var wire 2 < rf_bipolar [1:0] $end
$var wire 14 = cross_product [13:0] $end
$var wire 1 9 clk $end
$var reg 5 > cdr_cnt [4:0] $end
$var reg 1 7 data_out $end
$var reg 1 ? data_out_raw $end
$var reg 1 @ data_out_raw_d $end
$var reg 1 6 data_valid $end
$var reg 2 A i_mix [1:0] $end
$var reg 7 B i_sum [6:0] $end
$var reg 7 C i_sum_d [6:0] $end
$var reg 2 D nco_phase [1:0] $end
$var reg 2 E q_mix [1:0] $end
$var reg 7 F q_sum [6:0] $end
$var reg 7 G q_sum_d [6:0] $end
$var integer 32 H i [31:0] $end
$upscope $end
$scope module i_dewhitener $end
$var wire 6 I channel_index [5:0] $end
$var wire 1 7 data_in $end
$var wire 1 5 dewhitened_data_out $end
$var wire 1 : enable $end
$var wire 1 ; lfsr_load $end
$var wire 7 J lfsr_seed [6:0] $end
$var wire 1 0 rst_n $end
$var wire 1 K lfsr_out_bit $end
$var wire 7 L lfsr_next [6:0] $end
$var wire 1 9 clk $end
$var reg 7 M lfsr [6:0] $end
$upscope $end
$scope module i_parser $end
$var wire 6 N channel_index_out [5:0] $end
$var wire 1 O crc_feedback $end
$var wire 1 5 data_in $end
$var wire 1 6 data_valid $end
$var wire 1 0 rst_n $end
$var wire 24 P crc_next [23:0] $end
$var wire 1 9 clk $end
$var reg 32 Q addr_shift [31:0] $end
$var reg 8 R bit_cnt [7:0] $end
$var reg 8 S byte_cnt [7:0] $end
$var reg 24 T crc_calc [23:0] $end
$var reg 24 U crc_received [23:0] $end
$var reg 1 8 crc_valid $end
$var reg 1 4 packet_complete $end
$var reg 8 V payload_idx [7:0] $end
$var reg 8 W payload_length [7:0] $end
$var reg 8 X rx_data_out [7:0] $end
$var reg 1 # rx_data_valid $end
$var reg 1 " rx_ready $end
$var reg 8 Y shift_reg [7:0] $end
$var reg 3 Z state [2:0] $end
$upscope $end
$scope module i_rx_pll $end
$var wire 1 ) clk_in $end
$var wire 1 [ reset $end
$var reg 1 9 clk_out $end
$var reg 1 2 locked $end
$upscope $end
$upscope $end
$scope module tx_dut $end
$var wire 6 \ channel_idx [5:0] $end
$var wire 1 ) ext_clk $end
$var wire 1 * rst_n $end
$var wire 1 , start_tx $end
$var wire 8 ] tx_data_in [7:0] $end
$var wire 1 . tx_valid_in $end
$var wire 1 ^ whitened_stream $end
$var wire 1 _ white_en $end
$var wire 1 ! tx_ready_out $end
$var wire 1 % rf_out $end
$var wire 1 ( irq_tx_done $end
$var wire 1 ` framer_serial_out $end
$var wire 24 a crc_val [23:0] $end
$var wire 1 b crc_en $end
$scope module i_crc $end
$var wire 1 ) clk $end
$var wire 1 * rst_n $end
$var wire 1 b enable $end
$var wire 1 ` data_in $end
$var reg 24 c crc_next [23:0] $end
$var reg 24 d crc_out [23:0] $end
$var reg 1 e feedback $end
$upscope $end
$scope module i_framer $end
$var wire 6 f channel_index_out [5:0] $end
$var wire 1 ) clk $end
$var wire 24 g crc_in [23:0] $end
$var wire 1 * rst_n $end
$var wire 1 , start_tx $end
$var wire 8 h tx_data_in [7:0] $end
$var wire 1 . tx_valid_in $end
$var reg 6 i bit_cnt [5:0] $end
$var reg 8 j byte_cnt [7:0] $end
$var reg 1 b crc_enable $end
$var reg 1 ( irq_tx_done $end
$var reg 8 k packet_length [7:0] $end
$var reg 1 ` serial_data_out $end
$var reg 8 l shift_reg [7:0] $end
$var reg 3 m state [2:0] $end
$var reg 1 ! tx_ready_out $end
$var reg 1 _ whitener_enable $end
$upscope $end
$scope module i_modulator_chain $end
$var wire 1 ) ext_clk $end
$var wire 1 * rst_n $end
$var wire 1 ^ whitened_data_in $end
$var wire 1 % rf_modulated_out $end
$var wire 1 n locked $end
$var wire 1 o clk_fast $end
$scope module i_gfsk_modulator $end
$var wire 1 p rst_n $end
$var wire 1 ^ data_in $end
$var wire 1 o clk $end
$var reg 8 q m_current [7:0] $end
$var reg 1 % modulated_out $end
$var reg 8 r phase_acc [7:0] $end
$var reg 8 s sample_cnt [7:0] $end
$var reg 3 t shift_reg [2:0] $end
$upscope $end
$scope module i_pll $end
$var wire 1 ) clk_in $end
$var wire 1 u reset $end
$var reg 1 o clk_out $end
$var reg 1 n locked $end
$upscope $end
$upscope $end
$scope module i_whitener $end
$var wire 6 v channel_index [5:0] $end
$var wire 1 ) clk $end
$var wire 1 ` data_in $end
$var wire 1 _ enable $end
$var wire 1 , lfsr_load $end
$var wire 7 w lfsr_seed [6:0] $end
$var wire 1 * rst_n $end
$var wire 1 ^ whitened_data_out $end
$var wire 1 x lfsr_out_bit $end
$var wire 7 y lfsr_next [6:0] $end
$var reg 7 z lfsr [6:0] $end
$upscope $end
$upscope $end
$scope task send_byte $end
$var reg 8 { byte_val [7:0] $end
$upscope $end
$upscope $end
$enddefinitions $end
#0
$dumpvars
bx {
b1111111 z
b1101111 y
1x
b1001010 w
b100101 v
1u
b0 t
b0 s
b0 r
b111010 q
0p
0o
0n
b0 m
b0 l
b0 k
b0 j
b0 i
b0 h
b10101010101010101010101 g
b100101 f
1e
b10101010101010101010101 d
b101010101010100110000111 c
0b
b10101010101010101010101 a
0`
0_
1^
b0 ]
b100101 \
1[
b0 Z
b0 Y
bx X
b0 W
bx V
bx U
b10101010101010101010101 T
b0 S
b0 R
b0 Q
b1010101010101010101010 P
0O
b100101 N
b1111111 M
b1101111 L
1K
b1001010 J
b100101 I
b10100 H
bx G
b0 F
b0 E
b0 D
bx C
b0 B
b11 A
x@
x?
b0 >
bx =
b11 <
0;
0:
09
08
07
06
15
04
b0 3
02
bx 1
00
b100101 /
0.
b0 -
0,
b0 +
0*
0)
0(
0'
b0 &
0%
bx $
0#
1"
0!
$end
#1250
b0 =
b0 G
b0 C
b10100 H
19
1o
#2500
09
0o
#3750
b10100 H
19
1o
#5000
09
0o
#6250
b10100 H
19
1o
#7500
09
0o
#8750
b10100 H
19
1o
#10000
09
0o
#11250
b10100 H
19
1o
#12500
09
0o
#13750
b10100 H
19
1o
#15000
09
0o
#16250
b10100 H
19
1o
#17500
09
0o
#18750
b10100 H
19
1o
#20000
09
0o
#21250
b10100 H
19
1o
#22500
09
0o
#23750
b10100 H
19
1o
#25000
09
0o
1)
#26250
b10100 H
19
1o
#27500
09
0o
#28750
b10100 H
19
1o
#30000
09
0o
#31250
b10100 H
19
1o
#32500
09
0o
#33750
b10100 H
19
1o
#35000
09
0o
#36250
b10100 H
19
1o
#37500
09
0o
#38750
b10100 H
19
1o
#40000
09
0o
#41250
b10100 H
19
1o
#42500
09
0o
#43750
b10100 H
19
1o
#45000
09
0o
#46250
b10100 H
19
1o
#47500
09
0o
#48750
b10100 H
19
1o
#50000
09
0o
0)
#51250
b10100 H
19
1o
#52500
09
0o
#53750
b10100 H
19
1o
#55000
09
0o
#56250
b10100 H
19
1o
#57500
09
0o
#58750
b10100 H
19
1o
#60000
09
0o
#61250
b10100 H
19
1o
#62500
09
0o
#63750
b10100 H
19
1o
#65000
09
0o
#66250
b10100 H
19
1o
#67500
09
0o
#68750
b10100 H
19
1o
#70000
09
0o
#71250
b10100 H
19
1o
#72500
09
0o
#73750
b10100 H
19
1o
#75000
09
0o
1)
#76250
b10100 H
19
1o
#77500
09
0o
#78750
b10100 H
19
1o
#80000
09
0o
#81250
b10100 H
19
1o
#82500
09
0o
#83750
b10100 H
19
1o
#85000
09
0o
#86250
b10100 H
19
1o
#87500
09
0o
#88750
b10100 H
19
1o
#90000
09
0o
#91250
b10100 H
19
1o
#92500
09
0o
#93750
b10100 H
19
1o
#95000
09
0o
#96250
b10100 H
19
1o
#97500
09
0o
#98750
b10100 H
19
1o
#100000
09
0o
0)
#101250
b10100 H
19
1o
#102500
09
0o
#103750
b10100 H
19
1o
#105000
09
0o
#106250
b10100 H
19
1o
#107500
09
0o
#108750
b10100 H
19
1o
#110000
09
0o
#111250
b10100 H
19
1o
#112500
09
0o
#113750
b10100 H
19
1o
#115000
09
0o
#116250
b10100 H
19
1o
#117500
09
0o
#118750
b10100 H
19
1o
#120000
09
0o
#121250
b10100 H
19
1o
#122500
09
0o
#123750
b10100 H
19
1o
#125000
09
0o
1)
#126250
b10100 H
19
1o
#127500
09
0o
#128750
b10100 H
19
1o
#130000
09
0o
#131250
b10100 H
19
1o
#132500
09
0o
#133750
b10100 H
19
1o
#135000
09
0o
#136250
b10100 H
19
1o
#137500
09
0o
#138750
b10100 H
19
1o
#140000
09
0o
#141250
b10100 H
19
1o
#142500
09
0o
#143750
b10100 H
19
1o
#145000
09
0o
#146250
b10100 H
19
1o
#147500
09
0o
#148750
b10100 H
19
1o
#150000
09
0o
0)
#151250
b10100 H
19
1o
#152500
09
0o
#153750
b10100 H
19
1o
#155000
09
0o
#156250
b10100 H
19
1o
#157500
09
0o
#158750
b10100 H
19
1o
#160000
09
0o
#161250
b10100 H
19
1o
#162500
09
0o
#163750
b10100 H
19
1o
#165000
09
0o
#166250
b10100 H
19
1o
#167500
09
0o
#168750
b10100 H
19
1o
#170000
09
0o
#171250
b10100 H
19
1o
#172500
09
0o
#173750
b10100 H
19
1o
#175000
09
0o
1)
#176250
b10100 H
19
1o
#177500
09
0o
#178750
b10100 H
19
1o
#180000
09
0o
#181250
b10100 H
19
1o
#182500
09
0o
#183750
b10100 H
19
1o
#185000
09
0o
#186250
b10100 H
19
1o
#187500
09
0o
#188750
b10100 H
19
1o
#190000
09
0o
#191250
b10100 H
19
1o
#192500
09
0o
#193750
b10100 H
19
1o
#195000
09
0o
#196250
b10100 H
19
1o
#197500
09
0o
#198750
b10100 H
19
1o
#200000
09
0o
0)
#201250
b10100 H
19
1o
#202500
09
0o
#203750
b10100 H
19
1o
#205000
09
0o
#206250
b10100 H
19
1o
#207500
09
0o
#208750
b10100 H
19
1o
#210000
09
0o
#211250
b10100 H
19
1o
#212500
09
0o
#213750
b10100 H
19
1o
#215000
09
0o
#216250
b10100 H
19
1o
#217500
09
0o
#218750
b10100 H
19
1o
#220000
09
0o
#221250
b10100 H
19
1o
#222500
09
0o
#223750
b10100 H
19
1o
#225000
09
0o
1)
#226250
b10100 H
19
1o
#227500
09
0o
#228750
b10100 H
19
1o
#230000
09
0o
#231250
b10100 H
19
1o
#232500
09
0o
#233750
b10100 H
19
1o
#235000
09
0o
#236250
b10100 H
19
1o
#237500
09
0o
#238750
b10100 H
19
1o
#240000
09
0o
#241250
b10100 H
19
1o
#242500
09
0o
#243750
b10100 H
19
1o
#245000
09
0o
#246250
b10100 H
19
1o
#247500
09
0o
#248750
b10100 H
19
1o
#250000
09
0o
0)
#251250
b10100 H
19
1o
#252500
09
0o
#253750
b10100 H
19
1o
#255000
09
0o
#256250
b10100 H
19
1o
#257500
09
0o
#258750
b10100 H
19
1o
#260000
09
0o
#261250
b10100 H
19
1o
#262500
09
0o
#263750
b10100 H
19
1o
#265000
09
0o
#266250
b10100 H
19
1o
#267500
09
0o
#268750
b10100 H
19
1o
#270000
09
0o
#271250
b10100 H
19
1o
#272500
09
0o
#273750
b10100 H
19
1o
#275000
09
0o
1)
#276250
b10100 H
19
1o
#277500
09
0o
#278750
b10100 H
19
1o
#280000
09
0o
#281250
b10100 H
19
1o
#282500
09
0o
#283750
b10100 H
19
1o
#285000
09
0o
#286250
b10100 H
19
1o
#287500
09
0o
#288750
b10100 H
19
1o
#290000
09
0o
#291250
b10100 H
19
1o
#292500
09
0o
#293750
b10100 H
19
1o
#295000
09
0o
#296250
b10100 H
19
1o
#297500
09
0o
#298750
b10100 H
19
1o
#300000
09
0o
0)
#301250
b10100 H
19
1o
#302500
09
0o
#303750
b10100 H
19
1o
#305000
09
0o
#306250
b10100 H
19
1o
#307500
09
0o
#308750
b10100 H
19
1o
#310000
09
0o
#311250
b10100 H
19
1o
#312500
09
0o
#313750
b10100 H
19
1o
#315000
09
0o
#316250
b10100 H
19
1o
#317500
09
0o
#318750
b10100 H
19
1o
#320000
09
0o
#321250
b10100 H
19
1o
#322500
09
0o
#323750
b10100 H
19
1o
#325000
09
0o
1)
#326250
b10100 H
19
1o
#327500
09
0o
#328750
b10100 H
19
1o
#330000
09
0o
#331250
b10100 H
19
1o
#332500
09
0o
#333750
b10100 H
19
1o
#335000
09
0o
#336250
b10100 H
19
1o
#337500
09
0o
#338750
b10100 H
19
1o
#340000
09
0o
#341250
b10100 H
19
1o
#342500
09
0o
#343750
b10100 H
19
1o
#345000
09
0o
#346250
b10100 H
19
1o
#347500
09
0o
#348750
b10100 H
19
1o
#350000
09
0o
0)
#351250
b10100 H
19
1o
#352500
09
0o
#353750
b10100 H
19
1o
#355000
09
0o
#356250
b10100 H
19
1o
#357500
09
0o
#358750
b10100 H
19
1o
#360000
09
0o
#361250
b10100 H
19
1o
#362500
09
0o
#363750
b10100 H
19
1o
#365000
09
0o
#366250
b10100 H
19
1o
#367500
09
0o
#368750
b10100 H
19
1o
#370000
09
0o
#371250
b10100 H
19
1o
#372500
09
0o
#373750
b10100 H
19
1o
#375000
09
0o
1)
#376250
b10100 H
19
1o
#377500
09
0o
#378750
b10100 H
19
1o
#380000
09
0o
#381250
b10100 H
19
1o
#382500
09
0o
#383750
b10100 H
19
1o
#385000
09
0o
#386250
b10100 H
19
1o
#387500
09
0o
#388750
b10100 H
19
1o
#390000
09
0o
#391250
b10100 H
19
1o
#392500
09
0o
#393750
b10100 H
19
1o
#395000
09
0o
#396250
b10100 H
19
1o
#397500
09
0o
#398750
b10100 H
19
1o
#400000
09
0o
0)
#401250
b10100 H
19
1o
#402500
09
0o
#403750
b10100 H
19
1o
#405000
09
0o
#406250
b10100 H
19
1o
#407500
09
0o
#408750
b10100 H
19
1o
#410000
09
0o
#411250
b10100 H
19
1o
#412500
09
0o
#413750
b10100 H
19
1o
#415000
09
0o
#416250
b10100 H
19
1o
#417500
09
0o
#418750
b10100 H
19
1o
#420000
09
0o
#421250
b10100 H
19
1o
#422500
09
0o
#423750
b10100 H
19
1o
#425000
09
0o
1)
#426250
b10100 H
19
1o
#427500
09
0o
#428750
b10100 H
19
1o
#430000
09
0o
#431250
b10100 H
19
1o
#432500
09
0o
#433750
b10100 H
19
1o
#435000
09
0o
#436250
b10100 H
19
1o
#437500
09
0o
#438750
b10100 H
19
1o
#440000
09
0o
#441250
b10100 H
19
1o
#442500
09
0o
#443750
b10100 H
19
1o
#445000
09
0o
#446250
b10100 H
19
1o
#447500
09
0o
#448750
b10100 H
19
1o
#450000
09
0o
0)
#451250
b10100 H
19
1o
#452500
09
0o
#453750
b10100 H
19
1o
#455000
09
0o
#456250
b10100 H
19
1o
#457500
09
0o
#458750
b10100 H
19
1o
#460000
09
0o
#461250
b10100 H
19
1o
#462500
09
0o
#463750
b10100 H
19
1o
#465000
09
0o
#466250
b10100 H
19
1o
#467500
09
0o
#468750
b10100 H
19
1o
#470000
09
0o
#471250
b10100 H
19
1o
#472500
09
0o
#473750
b10100 H
19
1o
#475000
09
0o
1)
#476250
b10100 H
19
1o
#477500
09
0o
#478750
b10100 H
19
1o
#480000
09
0o
#481250
b10100 H
19
1o
#482500
09
0o
#483750
b10100 H
19
1o
#485000
09
0o
#486250
b10100 H
19
1o
#487500
09
0o
#488750
b10100 H
19
1o
#490000
09
0o
#491250
b10100 H
19
1o
#492500
09
0o
#493750
b10100 H
19
1o
#495000
09
0o
#496250
b10100 H
19
1o
#497500
09
0o
#498750
b10100 H
19
1o
#500000
0[
09
0o
0)
0u
1*
#501250
b10100 H
19
1o
#502500
09
0o
#503750
b10100 H
19
1o
#505000
09
0o
#506250
b10100 H
19
1o
#507500
09
0o
#508750
b10100 H
19
1o
#510000
09
0o
#511250
b10100 H
19
1o
#512500
09
0o
#513750
b10100 H
19
1o
#515000
09
0o
#516250
b10100 H
19
1o
#517500
09
0o
#518750
b10100 H
19
1o
#520000
09
0o
#521250
b10100 H
19
1o
#522500
09
0o
#523750
b10100 H
19
1o
#525000
09
0o
1)
#526250
b10100 H
19
1o
#527500
09
0o
#528750
b10100 H
19
1o
#530000
09
0o
#531250
b10100 H
19
1o
#532500
09
0o
#533750
b10100 H
19
1o
#535000
09
0o
#536250
b10100 H
19
1o
#537500
09
0o
#538750
b10100 H
19
1o
#540000
09
0o
#541250
b10100 H
19
1o
#542500
09
0o
#543750
b10100 H
19
1o
#545000
09
0o
#546250
b10100 H
19
1o
#547500
09
0o
#548750
b10100 H
19
1o
#550000
09
0o
0)
#551250
b10100 H
19
1o
#552500
09
0o
#553750
b10100 H
19
1o
#555000
09
0o
#556250
b10100 H
19
1o
#557500
09
0o
#558750
b10100 H
19
1o
#560000
09
0o
#561250
b10100 H
19
1o
#562500
09
0o
#563750
b10100 H
19
1o
#565000
09
0o
#566250
b10100 H
19
1o
#567500
09
0o
#568750
b10100 H
19
1o
#570000
09
0o
#571250
b10100 H
19
1o
#572500
09
0o
#573750
b10100 H
19
1o
#575000
09
0o
1)
#576250
b10100 H
19
1o
#577500
09
0o
#578750
b10100 H
19
1o
#580000
09
0o
#581250
b10100 H
19
1o
#582500
09
0o
#583750
b10100 H
19
1o
#585000
09
0o
#586250
b10100 H
19
1o
#587500
09
0o
#588750
b10100 H
19
1o
#590000
09
0o
#591250
b10100 H
19
1o
#592500
09
0o
#593750
b10100 H
19
1o
#595000
09
0o
#596250
b10100 H
19
1o
#597500
09
0o
#598750
b10100 H
19
1o
#600000
09
0o
0)
#601250
b10100 H
19
1o
#602500
09
0o
#603750
b10100 H
19
1o
#605000
09
0o
#606250
b10100 H
19
1o
#607500
09
0o
#608750
b10100 H
19
1o
#610000
09
0o
#611250
b10100 H
19
1o
#612500
09
0o
#613750
b10100 H
19
1o
#615000
09
0o
#616250
b10100 H
19
1o
#617500
09
0o
#618750
b10100 H
19
1o
#620000
09
0o
#621250
b10100 H
19
1o
#622500
09
0o
#623750
b10100 H
19
1o
#625000
09
0o
1)
#626250
b10100 H
19
1o
#627500
09
0o
#628750
b10100 H
19
1o
#630000
09
0o
#631250
b10100 H
19
1o
#632500
09
0o
#633750
b10100 H
19
1o
#635000
09
0o
#636250
b10100 H
19
1o
#637500
09
0o
#638750
b10100 H
19
1o
#640000
09
0o
#641250
b10100 H
19
1o
#642500
09
0o
#643750
b10100 H
19
1o
#645000
09
0o
#646250
b10100 H
19
1o
#647500
09
0o
#648750
b10100 H
19
1o
#650000
09
0o
0)
#651250
b10100 H
19
1o
#652500
09
0o
#653750
b10100 H
19
1o
#655000
09
0o
#656250
b10100 H
19
1o
#657500
09
0o
#658750
b10100 H
19
1o
#660000
09
0o
#661250
b10100 H
19
1o
#662500
09
0o
#663750
b10100 H
19
1o
#665000
09
0o
#666250
b10100 H
19
1o
#667500
09
0o
#668750
b10100 H
19
1o
#670000
09
0o
#671250
b10100 H
19
1o
#672500
09
0o
#673750
b10100 H
19
1o
#675000
09
0o
1)
#676250
b10100 H
19
1o
#677500
09
0o
#678750
b10100 H
19
1o
#680000
09
0o
#681250
b10100 H
19
1o
#682500
09
0o
#683750
b10100 H
19
1o
#685000
09
0o
#686250
b10100 H
19
1o
#687500
09
0o
#688750
b10100 H
19
1o
#690000
09
0o
#691250
b10100 H
19
1o
#692500
09
0o
#693750
b10100 H
19
1o
#695000
09
0o
#696250
b10100 H
19
1o
#697500
09
0o
#698750
b10100 H
19
1o
#700000
09
0o
0)
#701250
b10100 H
19
1o
#702500
09
0o
#703750
b10100 H
19
1o
#705000
09
0o
#706250
b10100 H
19
1o
#707500
09
0o
#708750
b10100 H
19
1o
#710000
09
0o
#711250
b10100 H
19
1o
#712500
09
0o
#713750
b10100 H
19
1o
#715000
09
0o
#716250
b10100 H
19
1o
#717500
09
0o
#718750
b10100 H
19
1o
#720000
09
0o
#721250
b10100 H
19
1o
#722500
09
0o
#723750
b10100 H
19
1o
#725000
10
1p
12
1n
09
0o
1)
#726250
b11 E
b0 A
b1 >
b1111111 B
b1 D
b111010 r
b1 s
b10100 H
19
1o
#727500
09
0o
#728750
b0 E
b1 A
b10 D
b1 =
b1111111 F
b10 >
b1111111 C
b1110100 r
b10 s
b10100 H
19
1o
#730000
09
0o
#731250
b1 E
b0 A
b11 >
b0 B
b11 D
0?
b1 =
b1111111 G
b10101110 r
b11 s
b10100 H
19
1o
#732500
09
0o
#733750
b0 E
b1 A
b1 <
b0 D
b0 F
b100 >
0@
b0 =
b0 C
1%
b11101000 r
b100 s
b10100 H
19
1o
#735000
09
0o
#736250
b1 E
b0 A
b101 >
b1 B
b1 D
b0 G
b100010 r
b101 s
b10100 H
19
1o
#737500
09
0o
#738750
b0 E
b1 A
b11 <
b10 D
b1 =
b1 F
b110 >
b1 C
0%
b1011100 r
b110 s
b10100 H
19
1o
#740000
09
0o
#741250
b1 E
b0 A
b111 >
b10 B
b11 D
b11111111111111 =
b1 G
b10010110 r
b111 s
b10100 H
19
1o
#742500
09
0o
#743750
b0 E
b1 A
b1 <
b0 D
b10 F
b1000 >
1?
b10 =
b10 C
1%
b11010000 r
b1000 s
b10100 H
19
1o
#745000
09
0o
#746250
b1 E
b0 A
b0 >
1@
b11 B
b1 D
0?
b11111111111110 =
b10 G
b1010 r
b1001 s
b10100 H
19
1o
#747500
09
0o
#748750
b0 E
b1 A
b11 <
b10 D
b11 F
0@
1?
b11 =
b11 C
0%
b1000100 r
b1010 s
b10100 H
19
1o
#750000
09
0o
0)
#751250
b1 E
b0 A
1@
b100 B
b11 D
0?
b11111111111101 =
b11 G
b1111110 r
b1011 s
b10100 H
19
1o
#752500
09
0o
#753750
b0 E
b11 A
b0 D
b100 F
0@
1?
b100 =
b100 C
b10111000 r
b1100 s
b10100 H
19
1o
#755000
09
0o
#756250
b1 E
b0 A
b1 <
1@
b11 B
b1 D
0?
b100 =
b100 G
1%
b11110010 r
b1101 s
b10100 H
19
1o
#757500
09
0o
#758750
b0 E
b11 A
b10 D
b101 F
0@
b11 =
b11 C
b101100 r
b1110 s
b10100 H
19
1o
#760000
09
0o
#761250
b1 E
b0 A
b11 <
b1 >
b10 B
b11 D
b101 =
b101 G
0%
b1100110 r
b1111 s
b10100 H
19
1o
#762500
09
0o
#763750
b0 E
b11 A
b0 D
b110 F
b10 >
b10 =
b10 C
b10100000 r
b10000 s
b10100 H
19
1o
#765000
09
0o
#766250
b1 E
b0 A
b1 <
b11 >
b1 B
b1 D
b110 =
b110 G
1%
b11011010 r
b10001 s
b10100 H
19
1o
#767500
09
0o
#768750
b0 E
b11 A
b10 D
b111 F
b100 >
b1 =
b1 C
b10100 r
b10010 s
b10100 H
19
1o
#770000
09
0o
#771250
b1 E
b0 A
b11 <
b101 >
b0 B
b11 D
b111 =
b111 G
0%
b1001110 r
b10011 s
b10100 H
19
1o
#772500
09
0o
#773750
b0 E
b11 A
b111101 q
b0 D
b1000 F
b110 >
b0 =
b0 C
b10001000 r
b1 t
b0 s
b10100 H
19
1o
#775000
09
0o
1)
#776250
b1 E
b0 A
b1 <
b111 >
b1 D
b1000 G
1%
b11000101 r
b1 s
b10100 H
19
1o
#777500
09
0o
#778750
b0 E
b11 A
b10 D
b1010 F
b1000 >
b10 r
b10 s
b10100 H
19
1o
#780000
09
0o
#781250
b1 E
b0 A
b11 <
b1001 >
b10100 =
b1111110 B
b11 D
b1010 G
0%
b111111 r
b11 s
b10100 H
19
1o
#782500
09
0o
#783750
b0 E
b11 A
b0 D
b1010 >
b0 =
b1111110 C
b1111100 r
b100 s
b10100 H
19
1o
#785000
09
0o
#786250
b11 E
b0 A
b1000000 q
16
b1011 >
b10100 =
b1111100 B
b1 D
b10111001 r
b101 s
b10100 H
19
1o
#787500
09
0o
#788750
b0 E
b11 A
b1 <
b10 D
b1000 F
06
b1100 >
b10000000 Y
b1000 =
b1111100 C
1%
b11111001 r
b110 s
b10100 H
19
1o
#790000
09
0o
#791250
b11 E
b0 A
b1101 >
b1111010 B
b11 D
b10000 =
b1000 G
b111001 r
b111 s
b10100 H
19
1o
#792500
09
0o
#793750
b0 E
b11 A
b11 <
b0 D
b110 F
b1110 >
b1100 =
b1111010 C
0%
b1111001 r
b1000 s
b10100 H
19
1o
#795000
09
0o
#796250
b11 E
b0 A
b1111 >
b1111000 B
b1 D
b1100 =
b110 G
b10111001 r
b1001 s
b10100 H
19
1o
#797500
09
0o
#798750
b0 E
b11 A
b1 <
b1000011 q
b10 D
b100 F
b10000 >
b10000 =
b1111000 C
1%
b11111001 r
b1010 s
b10100 H
19
1o
#800000
09
0o
0)
#801250
b11 E
b0 A
b10001 >
b1110110 B
b11 D
b1000 =
b100 G
b111100 r
b1011 s
b10100 H
19
1o
#802500
09
0o
#803750
b0 E
b11 A
b11 <
b0 D
b10 F
b10010 >
b10100 =
b1110110 C
0%
b1111111 r
b1100 s
b10100 H
19
1o
#805000
09
0o
#806250
b11 E
b0 A
b10011 >
b1 D
b0 =
b10 G
b11000010 r
b1101 s
b10100 H
19
1o
#807500
09
0o
#808750
b0 E
b11 A
b1 <
b10 D
b10100 =
b0 F
b0 >
1%
b101 r
b1110 s
b10100 H
19
1o
#810000
09
0o
#811250
b1 E
b0 A
b11 <
b1000110 q
b1 >
b11 D
b0 =
b0 G
0%
b1001000 r
b1111 s
b10100 H
19
1o
#812500
09
0o
#813750
b0 E
b11 A
b0 D
b10 >
b10001110 r
b10000 s
b10100 H
19
1o
#815000
09
0o
#816250
b1 E
b0 A
b1 <
b11 >
b1 D
1%
b11010100 r
b10001 s
b10100 H
19
1o
#817500
09
0o
#818750
b0 E
b11 A
b10 D
b100 >
b11010 r
b10010 s
b10100 H
19
1o
#820000
09
0o
#821250
b1 E
b0 A
b11 <
b101 >
b11 D
0%
b1100000 r
b10011 s
b10100 H
19
1o
#822500
09
0o
#823750
b0 E
b11 A
b1000000 q
b0 D
b110 >
b10100110 r
b11 t
b0 s
b10100 H
19
1o
#825000
09
0o
1)
#826250
b1 E
b0 A
b1 <
b111 >
b1 D
1%
b11100110 r
b1 s
b10100 H
19
1o
#827500
09
0o
#828750
b0 E
b11 A
b10 D
b1000 >
b100110 r
b10 s
b10100 H
19
1o
#830000
09
0o
#831250
b1 E
b0 A
b11 <
b1001 >
b11 D
0%
b1100110 r
b11 s
b10100 H
19
1o
#832500
09
0o
#833750
b0 E
b11 A
b0 D
b1010 >
b10100110 r
b100 s
b10100 H
19
1o
#835000
09
0o
#836250
b1 E
b0 A
b1 <
16
b1011 >
b1 D
1%
b11100110 r
b101 s
b10100 H
19
1o
#837500
09
0o
#838750
b0 E
b11 A
b10 D
b11111111101100 =
b10 F
06
b1100 >
b11000000 Y
b100110 r
b110 s
b10100 H
19
1o
#840000
09
0o
#841250
b1 E
b0 A
b11 <
b1101 >
b11 D
1?
b0 =
b10 G
0%
b1100110 r
b111 s
b10100 H
19
1o
#842500
09
0o
#843750
b0 E
b11 A
b0 D
b11111111101100 =
b100 F
b0 >
1@
b10100110 r
b1000 s
b10100 H
19
1o
#845000
09
0o
#846250
b1 E
b0 A
b1 <
b1 >
b1 D
b0 =
b100 G
1%
b11100110 r
b1001 s
b10100 H
19
1o
#847500
09
0o
#848750
b0 E
b11 A
b10 D
b11111111101100 =
b110 F
b10 >
b100110 r
b1010 s
b10100 H
19
1o
#850000
09
0o
0)
#851250
b1 E
b0 A
b11 <
b11 >
b11 D
b0 =
b110 G
0%
b1100110 r
b1011 s
b10100 H
19
1o
#852500
09
0o
#853750
b0 E
b11 A
b0 D
b11111111101100 =
b1000 F
b100 >
b10100110 r
b1100 s
b10100 H
19
1o
#855000
09
0o
#856250
b1 E
b0 A
b1 <
b101 >
b1 D
b0 =
b1000 G
1%
b11100110 r
b1101 s
b10100 H
19
1o
#857500
09
0o
#858750
b0 E
b11 A
b10 D
b11111111101100 =
b1010 F
b110 >
b100110 r
b1110 s
b10100 H
19
1o
#860000
09
0o
#861250
b1 E
b0 A
b11 <
b111 >
b11 D
b0 =
b1010 G
0%
b1100110 r
b1111 s
b10100 H
19
1o
#862500
09
0o
#863750
b0 E
b11 A
b0 D
b1000 >
b10100110 r
b10000 s
b10100 H
19
1o
#865000
09
0o
#866250
b1 E
b0 A
b1 <
b1001 >
b1 D
1%
b11100110 r
b10001 s
b10100 H
19
1o
#867500
09
0o
#868750
b0 E
b11 A
b10 D
b1010 >
b100110 r
b10010 s
b10100 H
19
1o
#870000
09
0o
